{
  "project_info": {
    "project_number": "896830658485",
    "firebase_url": "https://mobi-alt.firebaseio.com",
    "project_id": "mobi-alt",
    "storage_bucket": "mobi-alt.appspot.com"
  },
  "client": [
    {
      "client_info": {
        "mobilesdk_app_id": "1:896830658485:android:4a3c21d788bc1981",
        "android_client_info": {
          "package_name": "online.facilite.mobalt"
        }
      },
      "oauth_client": [
        {
          "client_id": "896830658485-hluad2nf7u07ansekcgh1ri8kbdkslkg.apps.googleusercontent.com",
          "client_type": 3
        }
      ],
      "api_key": [
        {
          "current_key": "AIzaSyD2XnqF_bD9HpMx2V1XKHcQPviomTFT-bU"
        }
      ],
      "services": {
        "appinvite_service": {
          "other_platform_oauth_client": [
            {
              "client_id": "896830658485-hluad2nf7u07ansekcgh1ri8kbdkslkg.apps.googleusercontent.com",
              "client_type": 3
            }
          ]
        }
      }
    }
  ],
  "configuration_version": "1"
}